{
    "Customer": {
        "appConfig": {
            "host": "localhost",
            "frontEndPort": 8080,
            "backEndPort": 8000,
            "dbName": "BOOKS",
            "corsConfig": {
                "host": "localhost"
            }
        },
        "credit": {
            "initialLimit": 100,
            "initialDays": 1
        }
    }
}
