[
  {"title":2007,"imageUrl":1,"description":"2007-01-01","id":"2007-01-31"},
  {"title":2007,"imageUrl":2,"description":"2007-02-01","id":"2007-02-28"},
  {"title":2007,"imageUrl":3,"description":"2007-03-01","id":"2007-03-31"}
]